<?xml version="1.0" encoding="iso-8859-1"?>
<!-- Generator: Adobe Illustrator 16.0.0, SVG Export Plug-In . SVG Version: 6.00 Build 0)  -->
<!DOCTYPE svg PUBLIC "-//W3C//DTD SVG 1.1//EN" "http://www.w3.org/Graphics/SVG/1.1/DTD/svg11.dtd">
<svg version="1.1" id="Capa_1" xmlns="http://www.w3.org/2000/svg" xmlns:xlink="http://www.w3.org/1999/xlink" x="0px" y="0px"
	 width="517.943px" height="517.943px" viewBox="0 0 517.943 517.943" style="enable-background:new 0 0 517.943 517.943;"
	 xml:space="preserve">
<g>
	<g>
		<path d="M73.875,174.476H41.041C18.372,174.476,0,192.854,0,215.523v225.748c0,22.668,18.372,41.047,41.041,41.047h32.834
			c22.668,0,41.047-18.379,41.047-41.047V215.516C114.921,192.848,96.543,174.476,73.875,174.476z"/>
		<path d="M505.549,186.288l-8.941-4.468c-8.109-4.058-22.037-7.344-31.102-7.344h-152.34c-9.062,0-13.947-6.922-10.893-15.46
			l36.842-103.158c3.049-8.537-1.535-17.638-10.508-18.941c-19.908-2.901-54.053-3.066-77.13,22.943
			c-6.016,6.781-13.023,19.823-18.103,27.339c-23.256,34.376-56.953,63.146-75.331,77.485c-7.148,5.581-13.158,17.147-13.158,26.218
			v275.002c0,9.069,7.344,16.42,16.42,16.42h268.637c9.064,0,21.23-5.557,27.168-12.405l14.07-16.23
			c5.936-6.854,11.871-19.669,13.262-28.629l33.287-215.186C519.111,200.89,513.664,190.338,505.549,186.288z"/>
	</g>
</g>
<g>
</g>
<g>
</g>
<g>
</g>
<g>
</g>
<g>
</g>
<g>
</g>
<g>
</g>
<g>
</g>
<g>
</g>
<g>
</g>
<g>
</g>
<g>
</g>
<g>
</g>
<g>
</g>
<g>
</g>
</svg>
